tau,F,P
0.0,-3.9741676401440236,39.526570359972595
1.0471975511965976,-0.6736569275471191,41.752782807741895
1.5707963267948966,0.6435978914466114,54.23101000893329
2.356194490192345,2.2393122681561417,87.98506967397381
3.141592653589793,4.378170531870214,142.35744758187474
4.1887902047863905,7.880606502218264,249.82554681244918
4.71238898038469,9.872987091117047,315.22527899481497
